{
  "name": "secfit",
  "description": "Secure Fitness",
  "version": "0.0.1",
  "main": "index.js",
  "engines": {
    "node": "12.x"
  },
  "dependencies": {
    "cordova": "10.0.0",
    "cordova-browser": "6.0.0",
    "cordova-plugin-whitelist": "^1.3.4",
    "form-data": "^4.0.0"
  },
  "devDependencies": {
    "testcafe": "^1.12.0",
    "testcafe-browser-provider-puppeteer": "^1.5.2"
  }
}
